{
  "extends": "@nrwl/workspace/presets/core.json",
  "npmScope": "nx-react-nest-poc",
  "affected": {
    "defaultBase": "master"
  },
  "cli": {
    "defaultCollection": "@nrwl/react"
  },
  "tasksRunnerOptions": {
    "default": {
      "runner": "@nrwl/workspace/tasks-runners/default",
      "options": {
        "cacheableOperations": ["build", "lint", "test", "e2e"]
      }
    }
  },
  "generators": {
    "@nrwl/react": {
      "application": {
        "style": "scss",
        "linter": "eslint",
        "babel": true
      },
      "component": {
        "style": "scss"
      },
      "library": {
        "style": "scss",
        "linter": "eslint"
      }
    }
  },
  "defaultProject": "my-app"
}
